Getting data in R
…
specify the entire URL

specify only the sheet ID

## specify URL
gs_url <- "https://docs.google.com/spreadsheets/d/1ct3MMMzEX82BeqJcUw3uYD5b4CJrKUmRYCK-wVA3yig/edit#gid=0"

## read from URL
read_sheet(gs_url)

## Reading from "FISH497_example"

## Range "Sheet1"

## # A tibble: 34 x 5
##     year flow_wtr flow_sum  npgo h_releases
##    <dbl>    <dbl>    <dbl> <dbl>      <dbl>
##  1  1978     234.     29.4 -0.75     340416
##  2  1979     391.     28.3 -0.22     274090
##  3  1980     490.     41.9 -0.69     216537
##  4  1981     253.     40.5 -0.09     300942
##  5  1982     248.     39.6  0.62     241931
##  6  1983     306.     40.8 -0.39     256238
##  7  1984     199.     45.9 -0.73     319220
##  8  1985     205.     42.8  0.43     125280
##  9  1986     207      45.0  1.32     229013
## 10  1987     190.     36.5  0.61     217948
## #  with 24 more rows
…
## Reading from "FISH497_example"
## Range "Sheet1"

## specify ID
gs_id <- as_sheets_id(gs_url)

## read from ID
read_sheet(gs_id)

## Reading from "FISH497_example"
## Range "Sheet1"

## # A tibble: 34 x 5
##     year flow_wtr flow_sum  npgo h_releases
##    <dbl>    <dbl>    <dbl> <dbl>      <dbl>
##  1  1978     234.     29.4 -0.75     340416
##  2  1979     391.     28.3 -0.22     274090
##  3  1980     490.     41.9 -0.69     216537
##  4  1981     253.     40.5 -0.09     300942
##  5  1982     248.     39.6  0.62     241931
##  6  1983     306.     40.8 -0.39     256238
##  7  1984     199.     45.9 -0.73     319220
##  8  1985     205.     42.8  0.43     125280
##  9  1986     207      45.0  1.32     229013
## 10  1987     190.     36.5  0.61     217948
## #  with 24 more rows
…
